CCTV-1,http://112.50.243.8/PLTV/88888888/224/3221225922/1.m3u8#http://111.13.111.242/otttv.bj.chinamobile.com/PLTV/88888888/224/3221226226/1.m3u8
CCTV-2,http://112.50.243.8/PLTV/88888888/224/3221225923/1.m3u8#http://111.13.111.242/otttv.bj.chinamobile.com/PLTV/88888888/224/3221226230/1.m3u8
CCTV-3,http://ottrrs.hl.chinamobile.com/PLTV/88888888/224/3221225754/index.m3u8#http://223.110.241.130:6610/gitv/live1/G_CCTV-3-HQ/.m3u8
CCTV-4,http://112.50.243.8/PLTV/88888888/224/3221225802/1.m3u8#http://111.13.111.242/otttv.bj.chinamobile.com/PLTV/88888888/224/3221226314/1.m3u8
CCTV-5,http://183.207.255.188/live/program/live/cctv5hd/4000000/mnf.m3u8#http://223.110.241.130:6610/gitv/live1/G_CCTV-5-HQ/G_CCTV-5-HQ/#http://36.159.12.237/PLTV/88888888/224/3221226739/index.m3u8#http://36.159.12.236/PLTV/88888888/224/3221226414/index.m3u8
CCTV-6,http://ottrrs.hl.chinamobile.com/PLTV/88888888/224/3221225751/index.m3u8#http://223.110.243.139/PLTV/3/224/3221225548/index.m3u8
CCTV-7,http://112.50.243.8/PLTV/88888888/224/3221225927/1.m3u8#http://111.13.111.242/otttv.bj.chinamobile.com/PLTV/88888888/224/3221226234/1.m3u8
CCTV-8,http://ottrrs.hl.chinamobile.com/PLTV/88888888/224/3221225750/index.m3u8#http://36.159.12.234/PLTV/88888888/224/3221226422/index.m3u8
CCTV-9,http://112.50.243.8/PLTV/88888888/224/3221225820/1.m3u8#http://111.13.111.242/otttv.bj.chinamobile.com/PLTV/88888888/224/3221226236/1.m3u8
CCTV-10,http://112.50.243.8/PLTV/88888888/224/3221225931/1.m3u8#http://111.13.111.242/otttv.bj.chinamobile.com/PLTV/88888888/224/3221226227/1.m3u8#http://ott.fj.chinamobile.com/PLTV/88888888/224/3221225814/1.m3u8
CCTV-11,http://112.50.243.8/PLTV/88888888/224/3221225815/1.m3u8#http://111.13.111.242/otttv.bj.chinamobile.com/PLTV/88888888/224/3221226315/1.m3u8
CCTV-12,http://112.50.243.8/PLTV/88888888/224/3221225816/1.m3u8#http://111.13.111.242/otttv.bj.chinamobile.com/PLTV/88888888/224/3221226228/1.m3u8
CCTV-13,http://112.50.243.8/PLTV/88888888/224/3221225817/1.m3u8#http://223.110.241.130:6610/gitv/live1/G_CCTV-13-HQ/.m3u8
CCTV-14,http://112.50.243.8/PLTV/88888888/224/3221225933/1.m3u8#http://111.13.111.242/otttv.bj.chinamobile.com/PLTV/88888888/224/3221226229/1.m3u8
CCTV-15,http://112.50.243.8/PLTV/88888888/224/3221225818/1.m3u8#http://111.13.111.167/otttv.bj.chinamobile.com/PLTV/88888888/224/3221226333/1.m3u8
CCTV-5+,http://112.50.243.8/PLTV/88888888/224/3221225939/1.m3u8#http://111.13.111.242/otttv.bj.chinamobile.com/PLTV/88888888/224/3221226225/1.m3u8
CCTV-17,http://otttv.bj.chinamobile.com/PLTV/88888888/224/3221226318/1.m3u8#http://111.13.111.242/otttv.bj.chinamobile.com/PLTV/88888888/224/3221226318/1.m3u8
CCTV-4美洲,http://cctvtxyh5ca.liveplay.myqcloud.com/live/cctvamerica_2_hd/index.m3u8
CCTV-4欧洲,http://cctvtxyh5ca.liveplay.myqcloud.com/live/cctveurope_2_hd/index.m3u8
CGTN,http://112.50.243.8/PLTV/88888888/224/3221225822/1.m3u8
CGTN Doc,http://112.50.243.8/PLTV/88888888/224/3221225813/1.m3u8
CETV1,http://112.50.243.8/PLTV/88888888/224/3221225869/1.m3u8#http://cctvalih5ca.v.myalicdn.com/cstv/cetv1_2/index.m3u8#http://39.135.19.139:18890/PLTV/88888888/224/3221225723/1/index.m3u8?fmt=ts2hls#http://ivi.bupt.edu.cn/hls/cetv1hd.m3u8
CETV2,http://cctvalih5ca.v.myalicdn.com/cstv/cetv2_2/index.m3u8
CETV3,http://cctvalih5ca.v.myalicdn.com/cstv/cetv3_2/index.m3u8
CETV4,http://cctvalih5ca.v.myalicdn.com/cstv/cetv4_2/index.m3u8
河北卫视,http://112.50.243.8/PLTV/88888888/224/3221225837/1.m3u8
河北生活,http://live4.plus.hebtv.com/hbjj/sd/live.m3u8
河北都市,http://live5.plus.hebtv.com//hbdssl/sd/live.m3u8
河北公共,http://live1.plus.hebtv.com//hbgg/sd/live.m3u8
河北影视,http://live5.plus.hebtv.com//hbys/sd/live.m3u8
河北少儿科教,http://live5.plus.hebtv.com/sekj/sd/live.m3u8
农民频道,http://live5.plus.hebtv.com/nmpdsl/sd/live.m3u8
张家口一套,http://nlive.zjkgdcs.com:8091/live/xwzhpd.m3u8
张家口二套,http://nlive.zjkgdcs.com:8091/live/zjktv2.m3u8
张家口三套,http://nlive.zjkgdcs.com:8091/live/zjktv3.m3u8
张家口手机台,http://nlive.zjkgdcs.com:8091/live/zjksjt.m3u8
北京卫视,http://112.50.243.8/PLTV/88888888/224/3221225937/1.m3u8
北京纪实,http://112.50.243.8/PLTV/88888888/224/3221225944/1.m3u8
天津卫视,http://112.50.243.8/PLTV/88888888/224/3221225941/1.m3u8
重庆卫视,http://112.50.243.8/PLTV/88888888/224/3221225949/1.m3u8
广西卫视,http://112.50.243.8/PLTV/88888888/224/3221225836/1.m3u8
广东卫视,http://112.50.243.8/PLTV/88888888/224/3221225942/1.m3u8
深圳卫视,http://112.50.243.8/PLTV/88888888/224/3221225938/1.m3u8
东方卫视,http://112.50.243.8/PLTV/88888888/224/3221225936/1.m3u8
浙江卫视,http://112.50.243.8/PLTV/88888888/224/3221225934/1.m3u8
江苏卫视,http://112.50.243.8/PLTV/88888888/224/3221225930/1.m3u8
安徽卫视,http://112.50.243.8/PLTV/88888888/224/3221225945/1.m3u8
湖南卫视,http://112.50.243.8//PLTV/88888888/224/3221225827/1.m3u8
湖北卫视,http://112.50.243.8/PLTV/88888888/224/3221225948/1.m3u8
辽宁卫视,http://112.50.243.8/PLTV/88888888/224/3221225947/1.m3u8
黑龙江卫视,http://112.50.243.8/PLTV/88888888/224/3221225940/1.m3u8
河南卫视,http://112.50.243.8/PLTV/88888888/224/3221225842/1.m3u8
山东卫视,http://112.50.243.8/PLTV/88888888/224/3221225943/1.m3u8
山东教育,http://112.50.243.8/PLTV/88888888/224/3221225873/1.m3u8
江西卫视,http://112.50.243.8/PLTV/88888888/224/3221225834/1.m3u8
四川卫视,http://112.50.243.8/PLTV/88888888/224/3221225835/1.m3u8
东南卫视,http://112.50.243.8/PLTV/88888888/224/3221225833/1.m3u8
海峡卫视,rtsp://183.252.166.199/PLTV/88888888/224/3221226128/10000100000000060000000002434539_0.smil
贵州卫视,http://112.50.243.8/PLTV/88888888/224/3221225838/1.m3u8
云南卫视,http://112.50.243.8/PLTV/88888888/224/3221225853/1.m3u8
甘肃卫视,http://112.50.243.8/PLTV/88888888/224/3221225845/1.m3u8
陕西卫视,http://112.50.243.8/PLTV/88888888/224/3221225850/1.m3u8
农林卫视,http://9999.jilu8.cn/sk.live.otvcloud.com/otv/skcc/live/channel61001/1300.m3u8
山西卫视,http://112.50.243.8/PLTV/88888888/224/3221225839/1.m3u8
宁夏卫视,http://112.50.243.8/PLTV/88888888/224/3221225849/1.m3u8
青海卫视,http://112.50.243.8/PLTV/88888888/224/3221225841/1.m3u8
吉林卫视,http://112.50.243.8/PLTV/88888888/224/3221225851/1.m3u8
内蒙古卫视,http://112.50.243.8/PLTV/88888888/224/3221225846/1.m3u8
厦门卫视,http://112.50.243.8/PLTV/88888888/224/3221226781/1.m3u8
新疆卫视,http://112.50.243.8/PLTV/88888888/224/3221225852/1.m3u8
兵团卫视,http://39.134.168.91/PLTV/1/224/3221225634/index.m3u8#http://101.71.255.229:6610/zjhs/2/10006/index.m3u8?virtualDomain=zjhs.live_hls.zte.com
旅游卫视,http://112.50.243.8/PLTV/88888888/224/3221225855/1.m3u8
三沙卫视,http://112.50.243.8/PLTV/88888888/224/3221227002/1.m3u8#http://112.50.243.8/PLTV/88888888/224/3221227002/1.m3u8#http://ivi.bupt.edu.cn/hls/sstv.m3u8#rtmp://58.200.131.2:1935/livetv/sstv
西藏卫视,http://otttv.bj.chinamobile.com/PLTV/88888888/224/3221225900/1.m3u8
凤凰中文,http://112.50.243.8/PLTV/88888888/224/3221225900/1.m3u8#http://106.54.30.243/gz009/gz.php?id=fhzw#http://otttv.bj.chinamobile.com/PLTV/88888888/224/3221225948/1.m3u8#http://106.54.30.243/gz009/gz.php?id=fhzw#http://otttv.bj.chinamobile.com/PLTV/88888888/224/3221225948/1.m3u8
凤凰资讯,http://112.50.243.8/PLTV/88888888/224/3221225901/1.m3u8#http://106.54.30.243/gz009/gz.php?id=fhzx#http://111.13.111.242/otttv.bj.chinamobile.com/PLTV/88888888/224/3221225949/1.m3u8#https://player.ggiptv.com/v/ifeng.php?id=zxhd#http://106.54.30.243/gz009/gz.php?id=fhzx#http://111.13.111.242/otttv.bj.chinamobile.com/PLTV/88888888/224/3221225949/1.m3u8#https://player.ggiptv.com/v/ifeng.php?id=zxhd
凤凰电影,http://106.54.30.243/gz009/gz.php?id=fhdy
香港卫视,http://cctvtxyh5ca.liveplay.myqcloud.com/cstv/xianggangweishi_2_hd.m3u8#http://cctvalih5ca.v.myalicdn.com/cstv/xianggangweishi_2/index.m3u8
澳视卫星,http://61.244.22.4/ch3/ch3.live/index.m3u8
澳视资讯,http://61.244.22.4/ch5/info_ch5.live/index.m3u8
CCTV-兵器科技,http://live.hcs.cmvideo.cn:8088/ws_v/2018/gfjs/gfjs711/1000/index.m3u8?&encrypt=
CCTV-怀旧剧场,http://live.hcs.cmvideo.cn:8088/ws_v/2018/hjjc/hjjc711/1000/index.m3u8?&encrypt=
CCTV-第一剧场,http://live.hcs.cmvideo.cn:8088/ws_v/2018/dyjc/dyjc711/1000/index.m3u8?&encrypt=
CCTV-风云剧场,http://live.hcs.cmvideo.cn:8088/ws_v/2018/fyjc/fyjc711/1000/index.m3u8?&encrypt=
CCTV-风云音乐,http://live.hcs.cmvideo.cn:8088/ws_v/2018/fyyy/fyyy711/1000/index.m3u8?&encrypt=
CCTV-风云足球,http://live.hcs.cmvideo.cn:8088/ws_v/2018/fyzq/fyzq711/1000/index.m3u8?&encrypt=
CCTV-世界地理,http://live.hcs.cmvideo.cn:8088/ws_v/2018/sjdl/sjdl711/1000/index.m3u8?&encrypt=
CCTV-文化精品,http://live.hcs.cmvideo.cn:8088/ws_v/2018/ysjp/ysjp711/1000/index.m3u8?&encrypt=
CCTV-央视台球,http://live.hcs.cmvideo.cn:8088/ws_v/2018/ystq/ystq711/1000/index.m3u8?&encrypt=
CCTV-高尔夫网球,http://live.hcs.cmvideo.cn:8088/ws_v/2018/gefwq/gefwq711/1000/index.m3u8?&encrypt=
CHC-高清电影,http://106.54.30.243/gz009/gz.php?id=chcgqdy#rtmp://ivi.bupt.edu.cn:1935/livetv/chchd
CHC-家庭影院,http://106.54.30.243/gz009/gz.php?id=chcjtyy#rtmp://ivi.bupt.edu.cn:1935/livetv/chctv
CHC-动作电影,http://106.54.30.243/gz009/gz.php?id=chcdzdy#rtmp://ivi.bupt.edu.cn:1935/livetv/chcatv
DOXTV,http://106.54.30.243/gz009/gz.php?id=doxtv
DOX映画,http://106.54.30.243/gz009/gz.php?id=doxyhhd
DOX剧场,http://106.54.30.243/gz009/gz.php?id=doxjchd
DOX新知,http://106.54.30.243/gz009/gz.php?id=doxxzhd
DOX新艺,http://106.54.30.243/gz009/gz.php?id=doxxyhd
DOX院线,http://106.54.30.243/gz009/gz.php?id=doxyxhd
DOX雅趣,http://106.54.30.243/gz009/gz.php?id=doxyqhd
DOX怡家,http://106.54.30.243/gz009/gz.php?id=doxyjhd
DOX英伦,http://106.54.30.243/gz009/gz.php?id=doxylhd
中国天气,http://223.110.245.157/ott.js.chinamobile.com/PLTV/3/224/3221227438/index.m3u8
中国交通,http://223.110.245.161/ott.js.chinamobile.com/PLTV/3/224/3221227027/index.m3u8
max极速汽车,http://112.50.243.8/PLTV/88888888/224/3221226140/1.m3u8
法治天地,http://112.50.243.8/PLTV/88888888/224/3221226143/1.m3u8
亚旅卫视,http://hls.jingchangkan.tv/jingchangkan/156722438_0HaM/index.m3u8#http://hls.jingchangkan.tv/jingchangkan/156722438_0HaM/index.m3u8
黑莓电影,http://112.50.243.8/PLTV/88888888/224/3221225891/1.m3u8
欢笑剧场,http://112.50.243.8/PLTV/88888888/224/3221226729/1.m3u8
FOX动作电影,http://45.11.0.125/ZZ_foxaction/ZZ_foxaction.m3u8
華納影視,http://live5.ocnttv.com:8080/ZZ_huanadianying/ZZ_huanadianying.m3u8
Channel V ,http://103.47.132.164/PLTV/88888888/224/3221227133/index.m3u8
阳光卫视,http://121.31.30.90:8085/ysten-business/live/yangguangstv/1.m3u8
TVBS新聞台,http://60.199.188.61/HLS/WG_TVBS-N/index.m3u8#http://60.199.188.65/HLS/WG_TVBS-N/01.m3u8
民视新聞台,https://1.mms.vlog.xuite.net/hls/ftvtv/index.m3u8#https://6.mms.vlog.xuite.net/hls/ftvtv/index.m3u8#http://210.61.56.23/hls/ftvtv/index.m3u8
三立新聞,http://60.199.188.66/HLS/WG_ETTV-N/01.m3u8#http://60.199.188.65/HLS/WG_ETTV-N/index.m3u8
中天新聞,http://seb.sason.top/sc/ztxw_fhd.m3u8
東森新聞,http://seb.sason.top/sc/dsxw_fhd.m3u8